<svg xmlns="http://www.w3.org/2000/svg" width="40" height="40" viewBox="0 0 40 40">
    <defs>
        <style>
            .cls-1{fill:#fff;opacity:0}.cls-2{fill:#fdc600}
        </style>
    </defs>
    <g id="Grupo_1533" data-name="Grupo 1533" transform="translate(-1368 -482)">
        <path id="Retângulo_524" d="M0 0h40v40H0z" class="cls-1" data-name="Retângulo 524" transform="translate(1368 482)"/>
        <path id="Retângulo_523" d="M0 0h32v4H0z" class="cls-2" data-name="Retângulo 523" transform="translate(1372 500)"/>
    </g>
</svg>
